^C:\USERS\W10\SOURCE\REPOS\CONSOLEAPPLICATION2\CONSOLEAPPLICATION2\DEBUG\CONSOLEAPPLICATION2.OBJ
C:\USERS\W10\SOURCE\REPOS\CONSOLEAPPLICATION2\DEBUG\CONSOLEAPPLICATION2.EXE
C:\USERS\W10\SOURCE\REPOS\CONSOLEAPPLICATION2\CONSOLEAPPLICATION2\DEBUG\CONSOLEAPPLICATION2.ILK
C:\USERS\W10\SOURCE\REPOS\CONSOLEAPPLICATION2\DEBUG\CONSOLEAPPLICATION2.PDB
